35;0;0
-6;70;0
76;70;0
110;0;1
69;70;1
151;70;1
185;0;2
144;70;2
226;70;2
260;0;3
219;70;3
301;70;3
335;0;1
294;70;0
376;70;0
410;0;2
369;70;0
451;70;0
485;0;3
444;70;0
526;70;0
560;0;2
519;70;1
601;70;1
635;0;3
594;70;1
676;70;1
710;0;0
669;70;1
751;70;1
35;65;3
-6;135;2
76;135;2
110;65;0
69;135;2
151;135;2
185;65;1
144;135;2
226;135;2
260;65;0
219;135;3
301;135;3
335;65;1
294;135;3
376;135;3
410;65;2
369;135;3
451;135;3
485;65;2
444;135;0
526;135;1
560;65;1
519;135;0
601;135;2
635;65;3
594;135;1
676;135;2
710;65;2
669;135;1
751;135;3
35;130;0
-6;200;2
76;200;3
110;130;3
69;200;2
151;200;0
185;130;1
144;200;3
226;200;0
260;130;0
219;200;3
301;200;1
