%YAML 1.1
%TAG !u! tag:unity3d.com,2011:
--- !u!1045 &1
EditorBuildSettings:
  m_ObjectHideFlags: 0
  serializedVersion: 2
  m_Scenes:
  - enabled: 1
    path: Assets/_Scenes/MenuGame.unity
    guid: 8b9d738663de99c4e845c077f328ac11
  - enabled: 1
    path: Assets/_Scenes/LoadingScreen.unity
    guid: d7bde8a4834a0dd4ba911faf1ea05736
  - enabled: 1
    path: Assets/_Scenes/MainGame.unity
    guid: ee8cdb816c699984aae780ee031b0ec1
  - enabled: 1
    path: Assets/_Scenes/FSM_Test.unity
    guid: 3df4600d8ab48d646958dee604a58857
  m_configObjects: {}
