2017-4-27-0-2-38-259193 : [cuisine allumée] ->  ok
2017-4-27-0-3-9-461176 : [cuisine éteint] ->  ok
2017-4-27-0-3-24-357700 : [cuisine allumée] ->  ok
2017-4-27-0-3-32-697728 : [Erreur cuisine] ->  Non-existant
2017-4-27-0-3-32-697835 : [cuisine est] ->  
2017-4-27-0-5-30-779118 : [cuisine eteint] ->  ok
2017-4-27-0-6-3-895625 : [cuisine allume] ->  ok
2017-4-27-0-6-41-286928 : [cuisine eteint] ->  ok
2017-4-27-0-6-56-906968 : [cuisine est] ->  eteint
2017-4-27-0-7-9-358020 : [cuisine allume] ->  ok
2017-4-27-0-7-20-298974 : [cuisine est] ->  allume
2017-4-27-0-7-34-747966 : [cuisine eteint] ->  ok
2017-4-27-0-7-40-475137 : [cuisine est] ->  eteint
2017-4-27-0-7-47-360838 : [Info rpi_serv] ->  CONNECTED
2017-4-27-0-7-47-593304 : [Error :] ->  fichier
2017-4-27-0-14-13-547578 : [Erreur Paquet_Bonjour_] ->  Incorrect
2017-4-27-0-14-30-871182 : [Info I/O] ->  DISCONNECTED
2017-4-27-0-15-16-321027 : [Info rpi_serv] ->  CONNECTED
2017-4-27-0-15-20-583811 : [porte ouvert] ->  ok
2017-4-27-0-15-48-36777 : [Info rpi_serv] ->  CONNECTED
2017-4-27-0-15-52-297135 : [porte ferme] ->  ok
2017-4-27-0-15-59-758188 : [porte est] ->  ferme
2017-4-27-0-16-6-385165 : [Info rpi_serv] ->  CONNECTED
2017-4-27-0-16-10-631951 : [porte ouvert] ->  ok
2017-4-27-0-16-16-693431 : [porte est] ->  ouvert
2017-4-27-0-16-35-218549 : [Info rpi_serv] ->  CONNECTED
2017-4-27-0-16-39-446943 : [porte ferme] ->  ok
2017-4-27-0-22-35-792164 : [salon allume] ->  ok
2017-4-27-0-23-22-391199 : [salon est] ->  allume
2017-4-27-0-23-33-179149 : [salon eteint] ->  ok
2017-4-27-0-26-35-676098 : [chambre allume] ->  ok
2017-4-27-0-27-4-888330 : [chambre est] ->  allume
2017-4-27-0-27-22-585626 : [chambre eteint] ->  ok
2017-4-27-0-27-45-344971 : [Info rpi_serv] ->  CONNECTED
2017-4-27-0-27-49-600811 : [porte ouvert] ->  ok
2017-4-27-0-27-57-360573 : [porte est] ->  ouvert
2017-4-27-0-28-8-436585 : [Info rpi_serv] ->  CONNECTED
2017-4-27-0-28-12-697773 : [porte ferme] ->  ok
2017-4-27-0-28-29-547015 : [Info I/O] ->  DISCONNECTED
2017-4-27-0-30-4-432038 : [Erreur Paquet_HUUUUUUUUUUM_LE_CACA_C'EST_DELICIEUX_] ->  Incorrect
2017-4-27-0-30-29-427761 : [Info I/O] ->  DISCONNECTED
2017-4-27-0-31-17-273559 : [Erreur arduino_sdb&hall] ->  No-Exist
2017-4-27-0-31-57-177682 : [Erreur arduino_sdb] ->  No-Exist
2017-4-27-0-32-6-913935 : [Erreur rpi_chauffage] ->  No-Exist
2017-4-27-0-32-17-449618 : [Erreur rpi_porte] ->  No-Exist
2017-4-27-0-32-31-737712 : [Erreur arduino_chambre] ->  No-Exist
2017-4-27-0-44-39-609696 : [Info rpi_serv] ->  CONNECTED
2017-4-27-0-44-39-858431 : [Error :] ->  fichier
2017-4-27-0-48-45-248862 : [Info rpi_serv] ->  CONNECTED
2017-4-27-0-48-45-484603 : [Error :] ->  fichier
2017-4-27-0-54-0-768890 : [Info rpi_serv] ->  CONNECTED
[ Error : fichier porte_ouvert.png non existant ]2017-4-27-0-55-33-856842 : [Info rpi_serv] ->  CONNECTED
2017-4-27-0-55-34-89889[ Error : fichier porte_ouvert.png non existant ]2017-4-27-0-57-7-584922 : [Info rpi_serv] ->  CONNECTED
2017-4-27-0-57-7-810353 : [ Error : fichier porte_ouvert.png non existant ] 
2017-4-27-1-1-9-120849 : [Info rpi_serv] ->  CONNECTED
2017-4-27-1-1-9-350253 : [ Error : fichier porte_ouvert.png non existant ] 
2017-4-27-1-1-39-7192 : [Erreur Paquet_arduino_rpi_porte_A_] ->  Incorrect
2017-4-27-1-1-46-272777 : [Info rpi_serv] ->  CONNECTED
2017-4-27-1-1-50-520872 : [porte ouvert] ->  ok
