2017-6-6-0-5-30-397558 : [chambre eteint] ->  ok
2017-6-6-0-5-41-337289 : [chambre eteint] ->  ok
2017-6-6-0-5-43-959012 : [salon eteint] ->  ok
2017-6-6-0-5-46-580078 : [cuisine eteint] ->  ok
2017-6-6-0-6-24-482703 : [chambre allume] ->  ok
2017-6-6-0-6-27-104033 : [salon allume] ->  ok
2017-6-6-0-6-29-725738 : [cuisine allume] ->  ok
2017-6-6-0-6-39-633327 : [chambre eteint] ->  ok
2017-6-6-0-6-42-254523 : [salon eteint] ->  ok
2017-6-6-0-6-44-876147 : [cuisine eteint] ->  ok
