2017-6-4-16-41-24-445750 : [chambre allume] ->  ok
2017-6-4-16-42-6-967219 : [chambre eteint] ->  ok
2017-6-4-16-43-26-878004 : [Erreur NULL] ->  Communication
2017-6-4-16-44-22-359939 : [Erreur NULL] ->  Communication
2017-6-4-16-53-41-646798 : [cuisine allume] ->  ok
2017-6-4-17-3-37-42311 : [chambre allume] ->  ok
2017-6-4-17-3-55-974327 : [chambre eteint] ->  ok
2017-6-4-17-4-27-57861 : [chambre est] ->  eteint
2017-6-4-17-4-44-59040 : [chambre allume] ->  ok
2017-6-4-17-4-46-680353 : [salon allume] ->  ok
2017-6-4-17-4-49-302492 : [cuisine allume] ->  ok
2017-6-4-17-5-22-957746 : [chambre eteint] ->  ok
2017-6-4-17-5-25-579209 : [salon eteint] ->  ok
2017-6-4-17-5-28-200444 : [cuisine eteint] ->  ok
2017-6-4-19-27-19-277058 : [chambre allume] ->  ok
2017-6-4-19-27-29-287032 : [chambre eteint] ->  ok
2017-6-4-19-27-46-229057 : [chambre est] ->  eteint
2017-6-4-19-41-37-724923 : [chambre allume] ->  ok
2017-6-4-19-41-45-502137 : [chambre eteint] ->  ok
2017-6-4-20-2-59-21036 : [chambre allume] ->  ok
2017-6-4-20-3-6-729473 : [chambre eteint] ->  ok
2017-6-4-20-43-0-460566 : [chambre allume] ->  ok
2017-6-4-20-43-15-33334 : [chambre eteint] ->  ok
2017-6-4-20-43-24-290146 : [salon allume] ->  ok
2017-6-4-20-43-34-218344 : [salon eteint] ->  ok
2017-6-4-20-44-18-604783 : [chambre allume] ->  ok
2017-6-4-20-44-22-78063 : [salon allume] ->  ok
2017-6-4-20-44-25-501866 : [cuisine allume] ->  ok
2017-6-4-20-44-26-452157 : [Info rpi_serv] ->  DISCONNECTED
2017-6-4-20-44-37-625827 : [chambre eteint] ->  ok
2017-6-4-20-44-41-29822 : [salon eteint] ->  ok
2017-6-4-20-44-44-391943 : [cuisine eteint] ->  ok
2017-6-4-20-49-29-362025 : [Info rpi_serv] ->  DISCONNECTED
2017-6-4-20-50-19-27436 : [Info dex11] ->  CONNECTED
2017-6-4-20-50-29-622893 : [porte ouvert] ->  ok
2017-6-4-20-50-58-891585 : [Info dex11] ->  CONNECTED
2017-6-4-20-51-9-543026 : [porte ouvert] ->  ok
2017-6-4-20-53-44-979662 : [chambre allume] ->  ok
2017-6-4-20-53-48-440616 : [salon allume] ->  ok
2017-6-4-20-53-51-832010 : [cuisine allume] ->  ok
2017-6-4-20-54-4-700758 : [chambre eteint] ->  ok
2017-6-4-20-54-8-84283 : [salon eteint] ->  ok
2017-6-4-20-54-11-463266 : [cuisine eteint] ->  ok
2017-6-4-20-57-17-837690 : [Info dex11] ->  CONNECTED
2017-6-4-20-57-28-487541 : [porte ouvert] ->  ok
2017-6-4-20-57-31-768558 : [Info dex11] ->  CONNECTED
2017-6-4-20-57-42-394017 : [volet ouvert] ->  ok
2017-6-4-20-57-45-546217 : [Info dex11] ->  CONNECTED
2017-6-4-20-57-56-167159 : [fenetre ouvert] ->  ok
2017-6-4-20-58-10-885074 : [porte est] ->  ouvert
2017-6-4-20-58-19-580562 : [Info dex11] ->  CONNECTED
2017-6-4-20-58-30-220066 : [porte ferme] ->  ok
2017-6-4-21-34-43-62247 : [Info dex11] ->  CONNECTED
2017-6-4-21-34-53-747875 : [porte ferme] ->  ok
2017-6-4-21-35-9-725244 : [Info dex11] ->  CONNECTED
2017-6-4-21-35-20-457091 : [volet ferme] ->  ok
2017-6-4-21-35-23-609255 : [Info dex11] ->  CONNECTED
2017-6-4-21-35-34-310448 : [fenetre ferme] ->  ok
2017-6-4-21-37-30-304093 : [salon allume] ->  ok
2017-6-4-21-37-50-905226 : [Info dex11] ->  CONNECTED
2017-6-4-21-38-1-604116 : [porte ferme] ->  ok
2017-6-4-21-38-5-138248 : [Info dex11] ->  CONNECTED
2017-6-4-21-38-15-822901 : [volet ferme] ->  ok
2017-6-4-21-38-19-89259 : [Info dex11] ->  CONNECTED
2017-6-4-21-38-29-779991 : [fenetre ferme] ->  ok
2017-6-4-21-40-52-904293 : [chambre allume] ->  ok
2017-6-4-21-41-10-575865 : [Info dex11] ->  CONNECTED
2017-6-4-21-41-22-36128 : [volet ferme] ->  ok
2017-6-4-21-43-14-152460 : [cuisine allume] ->  ok
2017-6-4-21-43-29-410304 : [Info dex11] ->  CONNECTED
2017-6-4-21-43-40-247596 : [porte ferme] ->  ok
2017-6-4-21-43-43-613279 : [Info dex11] ->  CONNECTED
2017-6-4-21-43-54-326488 : [volet ferme] ->  ok
2017-6-4-21-43-57-693393 : [Info dex11] ->  CONNECTED
2017-6-4-21-44-8-416657 : [fenetre ferme] ->  ok
2017-6-4-21-44-16-478660 : [chambre eteint] ->  ok
2017-6-4-21-44-19-899156 : [salon eteint] ->  ok
2017-6-4-21-44-23-978724 : [cuisine eteint] ->  ok
2017-6-4-21-47-39-206357 : [Info dex11] ->  CONNECTED
2017-6-4-21-47-49-916167 : [porte ferme] ->  ok
2017-6-4-21-47-53-268393 : [Info dex11] ->  CONNECTED
2017-6-4-21-48-3-986091 : [volet ferme] ->  ok
2017-6-4-21-48-7-414481 : [Info dex11] ->  CONNECTED
2017-6-4-21-48-18-121358 : [fenetre ferme] ->  ok
2017-6-4-21-49-4-304907 : [salon allume] ->  ok
2017-6-4-21-49-25-502422 : [Info dex11] ->  CONNECTED
2017-6-4-21-49-36-199300 : [porte ferme] ->  ok
2017-6-4-21-49-39-545320 : [Info dex11] ->  CONNECTED
2017-6-4-21-49-50-467719 : [volet ferme] ->  ok
2017-6-4-21-49-53-770426 : [Info dex11] ->  CONNECTED
2017-6-4-21-50-4-479585 : [fenetre ferme] ->  ok
2017-6-4-21-50-7-315545 : [cuisine allume] ->  ok
2017-6-4-21-50-14-761409 : [chambre allume] ->  ok
2017-6-4-21-50-27-4418 : [Info dex11] ->  CONNECTED
2017-6-4-21-50-37-734929 : [porte ferme] ->  ok
2017-6-4-21-50-41-105370 : [Info dex11] ->  CONNECTED
2017-6-4-21-50-51-817469 : [volet ferme] ->  ok
2017-6-4-21-50-55-130441 : [Info dex11] ->  CONNECTED
2017-6-4-21-51-5-828081 : [fenetre ferme] ->  ok
2017-6-4-21-51-14-408760 : [chambre eteint] ->  ok
2017-6-4-21-51-17-836995 : [salon eteint] ->  ok
2017-6-4-21-51-21-252877 : [cuisine eteint] ->  ok
2017-6-4-21-53-47-50346 : [Info dex11] ->  CONNECTED
2017-6-4-21-53-57-756603 : [porte ferme] ->  ok
2017-6-4-21-54-1-101338 : [Info dex11] ->  CONNECTED
2017-6-4-21-54-11-796076 : [volet ferme] ->  ok
2017-6-4-21-54-15-213392 : [Info dex11] ->  CONNECTED
2017-6-4-21-54-25-918902 : [fenetre ferme] ->  ok
2017-6-4-21-57-46-592031 : [salon allume] ->  ok
2017-6-4-22-0-3-765254 : [chambre allume] ->  ok
2017-6-4-22-0-13-208435 : [Info dex11] ->  CONNECTED
2017-6-4-22-0-23-897623 : [volet ferme] ->  ok
2017-6-4-22-2-22-601314 : [cuisine allume] ->  ok
2017-6-4-22-2-39-451437 : [Info dex11] ->  CONNECTED
2017-6-4-22-2-50-186654 : [porte ferme] ->  ok
2017-6-4-22-2-53-683507 : [Info dex11] ->  CONNECTED
2017-6-4-22-3-4-380097 : [volet ferme] ->  ok
2017-6-4-22-3-7-688518 : [Info dex11] ->  CONNECTED
2017-6-4-22-3-18-380505 : [fenetre ferme] ->  ok
2017-6-4-22-3-27-471131 : [chambre eteint] ->  ok
2017-6-4-22-3-30-895438 : [salon eteint] ->  ok
2017-6-4-22-3-34-266117 : [cuisine eteint] ->  ok
2017-6-4-22-12-34-64505 : [Info dex11] ->  CONNECTED
2017-6-4-22-12-44-758019 : [porte ferme] ->  ok
2017-6-4-22-13-3-425496 : [Info dex11] ->  CONNECTED
2017-6-4-22-13-14-146899 : [volet ferme] ->  ok
2017-6-4-22-13-17-451654 : [Info dex11] ->  CONNECTED
2017-6-4-22-13-28-143995 : [fenetre ferme] ->  ok
2017-6-4-22-14-42-35607 : [Info dex11] ->  CONNECTED
2017-6-4-22-14-52-720469 : [porte ferme] ->  ok
2017-6-4-22-15-9-578547 : [Info dex11] ->  CONNECTED
2017-6-4-22-15-20-306123 : [volet ferme] ->  ok
2017-6-4-22-15-23-48771 : [salon allume] ->  ok
2017-6-4-22-15-24-793554 : [Info dex11] ->  CONNECTED
2017-6-4-22-15-35-498205 : [fenetre ferme] ->  ok
2017-6-4-22-17-59-243082 : [chambre allume] ->  ok
2017-6-4-22-18-6-653590 : [Info dex11] ->  CONNECTED
2017-6-4-22-18-17-341602 : [volet ferme] ->  ok
2017-6-4-22-18-51-698086 : [cuisine allume] ->  ok
2017-6-4-22-19-6-887595 : [Info dex11] ->  CONNECTED
2017-6-4-22-19-17-601690 : [porte ferme] ->  ok
2017-6-4-22-19-20-983628 : [Info dex11] ->  CONNECTED
2017-6-4-22-19-31-703223 : [volet ferme] ->  ok
2017-6-4-22-19-35-92628 : [Info dex11] ->  CONNECTED
2017-6-4-22-19-45-794019 : [fenetre ferme] ->  ok
2017-6-4-22-19-57-370696 : [chambre eteint] ->  ok
2017-6-4-22-20-0-815311 : [salon eteint] ->  ok
2017-6-4-22-20-4-157639 : [cuisine eteint] ->  ok
