2017-4-26-16-48-48-428911 : [Erreur Paquet] ->  Incorrect
2017-4-26-16-49-18-849521 : [Erreur Paquet] ->  Incorrect
2017-4-26-16-50-40-922228 : [Erreur Paquet] ->  Incorrect
2017-4-26-16-51-42-514421 : [Erreur Paquet] ->  Incorrect
2017-4-26-16-56-35-277241 : [salon est] ->  éteint
2017-4-26-16-57-13-31558 : [Erreur NULL] ->  Communication
2017-4-26-16-57-40-88639 : [Erreur NULL] ->  Communication
2017-4-26-16-58-47-817754 : [salon allumée] ->  ok
2017-4-26-16-59-10-254792 : [chambre allumée] ->  ok
2017-4-26-17-1-15-136915 : [Info rpi_serv] ->  CONNECTED
2017-4-26-17-1-19-422498 : [porte ouverte] ->  ok
2017-4-26-17-5-20-480793 : [salon éteint] ->  ok
2017-4-26-17-5-29-155662 : [chambre éteint] ->  ok
2017-4-26-17-7-40-844679 : [Info rpi_serv] ->  CONNECTED
2017-4-26-17-7-41-81338 : [Error :] ->  fichier
2017-4-26-17-10-38-390333 : [chambre allumée] ->  ok
2017-4-26-17-10-49-825961 : [chambre éteint] ->  ok
2017-4-26-17-10-58-652176 : [hall allumée] ->  ok
2017-4-26-17-14-7-616819 : [Info rpi_serv] ->  CONNECTED
2017-4-26-17-14-11-866751 : [porte fermee] ->  ok
2017-4-26-17-15-23-680861 : [Info rpi_serv] ->  CONNECTED
2017-4-26-17-15-27-926293 : [porte ouverte] ->  ok
2017-4-26-17-18-57-356240 : [Erreur hall] ->  No-Exist
2017-4-26-17-19-40-884212 : [Erreur hall] ->  No-Exist
2017-4-26-17-22-32-523758 : [Erreur Paquet] ->  Incorrect
2017-4-26-17-23-25-83965 : [Erreur Paquet] ->  Incorrect
2017-4-26-17-24-20-397779 : [Erreur arduino_hall] ->  No-Exist
2017-4-26-17-24-29-229455 : [Erreur rpi_hall] ->  No-Exist
2017-4-26-17-26-15-252776 : [Erreur Paquet:['Bonjour']] ->  Incorrect
2017-4-26-17-27-17-60983 : [Erreur Paquet:['clear']] ->  Incorrect
2017-4-26-17-28-3-197578 : [Erreur Paquet_['Bonjour',] ->  'comment',
2017-4-26-17-28-47-549434 : [Erreur Paquet_['Bonjour',] ->  'yo']
2017-4-26-17-29-15-205624 : [Erreur Paquet_['"Bonjour',] ->  'comment',
2017-4-26-17-31-22-414289 : [Erreur Paquet_Bonjour_comment_que] ->  Incorrect
2017-4-26-17-32-21-314500 : [Info I/O] ->  DISCONNECTED
2017-4-26-17-33-52-315071 : [Info I/O] ->  DISCONNECTED
2017-4-26-17-34-13-289502 : [Erreur arduino_hall] ->  No-Exist
2017-4-26-19-16-1-175933 : [Info I/O] ->  DISCONNECTED
2017-4-26-19-16-44-613018 : [chambre allumée] ->  ok
2017-4-26-19-16-53-504955 : [chambre éteint] ->  ok
2017-4-26-21-41-35-402309 : [Erreur Paquet_Bonjour_] ->  Incorrect
2017-4-26-21-42-16-322882 : [Erreur Paquet_bhfdjhuqbvdsq_bfdhuqsbf_ouqs_bfuhsxbf__fbsxduo_f_bsdyu_] ->  Incorrect
2017-4-26-21-48-39-228649 : [chambre allumée] ->  ok
2017-4-26-21-48-46-101415 : [chambre éteint] ->  ok
2017-4-26-21-48-51-61010 : [chambre est] ->  éteint
2017-4-26-23-33-57-96699 : [Erreur Paquet_Bonjour_] ->  Incorrect
2017-4-26-23-34-7-884532 : [Info I/O] ->  DISCONNECTED
2017-4-26-23-34-45-260114 : [Info I/O] ->  DISCONNECTED
2017-4-26-23-35-23-756528 : [Info Unexpected] ->  DISCONNECTED
2017-4-26-23-36-7-781034 : [Info Unexpected] ->  DISCONNECTED
2017-4-26-23-39-46-691485 : [chambre est] ->  éteint
2017-4-26-23-39-55-267503 : [salon allumée] ->  ok
2017-4-26-23-40-4-118533 : [salon éteint] ->  ok
2017-4-26-23-40-29-760862 : [Info rpi_serv] ->  CONNECTED
2017-4-26-23-40-34-6967 : [porte ouverte] ->  ok
2017-4-26-23-45-49-569028 : [chambre éteint] ->  ok
2017-4-26-23-46-31-891090 : [salon allumée] ->  ok
2017-4-26-23-46-55-994684 : [salon éteint] ->  ok
2017-4-26-23-48-35-40854 : [Info rpi_serv] ->  CONNECTED
2017-4-26-23-48-39-292639 : [porte ouverte] ->  ok
2017-4-26-23-49-13-536794 : [Info rpi_serv] ->  CONNECTED
2017-4-26-23-49-17-793932 : [porte fermee] ->  ok
2017-4-26-23-50-31-590504 : [Erreur porte] ->  Non-existant
2017-4-26-23-50-31-590639 : [porte est] ->  
2017-4-26-23-51-36-550495 : [fenetre est] ->  fermé
2017-4-26-23-51-59-110938 : [Erreur porte] ->  Non-existant
2017-4-26-23-51-59-111020 : [porte est] ->  
2017-4-26-23-52-28-310737 : [porte est] ->  fermé
2017-4-26-23-56-56-486834 : [Erreur Paquet_Bonjour_] ->  Incorrect
